     ДАННЫЕ ВВОДА К ПРОГРАММЕ  "DEAD6"  Version 6.0
     PROFILE:  ENISEISK - BOGUCHANY - KOVA,   1965                   
      18     G - число изолиний поля вpемен, integer
      47    NN - число отсчетов поля вpемен по оси x, integer
   10.000  MIX - левая граница задания поля времен по оси x, real [км] 
  470.000  MAX - правая граница задания поля времен по оси x, real [км]
  10.000   HX1 - шаг задания поля вpемен по оси x, real [км]
    .000   MIZ - уpовень пpиведения поля вpемен и pазpеза по оси z, [км]

         L0(G) - массив баз зондирований (10F8.3)
  30.000  40.000  50.000  60.000  70.000  80.000  90.000 100.000 110.000 120.000
 130.000 140.000 150.000 160.000 170.000 180.000 190.000 200.000

       T(G,NN) - поле времен (10F7.3)
   .000   .000   .000   .000   .000  5.092  5.123  5.154  5.184  5.215
  5.246  5.277  5.307  5.338  5.369  5.399  5.430  5.461  5.491  5.522
  5.553  5.583  5.614  5.645  5.675  5.706  5.737  5.767  5.798  5.860
  5.858  5.834  5.837  5.840  5.843  5.845  5.848  5.851  5.854   .000
   .000   .000   .000   .000   .000   .000   .000
   .000  7.540  7.262  7.040  6.908  6.866  6.931  6.998  7.065  7.132
  7.198  7.254  7.270  7.286  7.302  7.319  7.335  7.351  7.367  7.384
  7.400  7.416  7.432  7.448  7.465  7.544  7.588  7.611  7.605  7.566
  7.520  7.502  7.507  7.512  7.518  7.523  7.528  7.533  7.538   .000
   .000   .000   .000   .000   .000   .000   .000
   .000  9.118  8.883  8.855  8.826  8.798  8.770  8.741  8.750  8.805
  8.854  8.883  8.880  8.877  8.874  8.871  8.868  8.864  8.885  8.923
  8.972  9.027  9.087  9.121  9.152  9.182  9.212  9.243  9.273  9.261
  9.190  9.154  9.154  9.155  9.155  9.156  9.156  9.157  9.157   .000
   .000   .000   .000   .000   .000   .000   .000
   .000   .000 10.802 10.773 10.744 10.714 10.685 10.655 10.529 10.487
 10.481 10.476 10.458 10.428 10.415 10.417 10.431 10.460 10.506 10.562
 10.618 10.664 10.698 10.730 10.769 10.810 10.848 10.878 10.904 10.901
 10.855 10.781 10.752 10.762 10.789 10.827 10.866 10.905   .000   .000
   .000   .000   .000   .000   .000   .000   .000
   .000 12.613 12.652 12.574 12.418 12.271 12.204 12.197 12.209 12.231
 12.273 12.415 12.339 12.263 12.188 12.112 12.128 12.169 12.174 12.167
 12.182 12.222 12.250 12.283 12.300 12.378 12.455 12.533 12.559 12.509
 12.505 12.537 12.554 12.571 12.607 12.632 12.615 12.542 12.475 12.505
 12.668 12.901 13.145   .000   .000   .000   .000
   .000   .000 14.189 14.001 13.800 13.655 13.620 13.668 13.748 13.822
 13.860 13.838 13.836 13.834 13.832 13.831 13.792 13.820 13.863 13.906
 13.937 13.953 13.955 14.006 14.057 14.108 14.158 14.159 14.170 14.199
 14.224 14.260 14.300 14.326 14.338 14.335 14.306 14.249 14.201 14.241
 14.379 14.581 14.807   .000   .000   .000   .000
   .000   .000   .000 15.763 15.554 15.381 15.315 15.355 15.445 15.529
 15.556 15.541 15.524 15.513 15.500 15.478 15.455 15.468 15.520 15.568
 15.584 15.574 15.541 15.609 15.676 15.744 15.811 15.748 15.720 15.715
 15.777 15.865 15.967 16.028 16.047 16.025 15.959 15.864 15.800 15.872
 16.083 16.294 16.505 16.689   .000   .000   .000
   .000   .000   .000 17.522 17.331 17.131 17.023 17.040 17.129 17.221
 17.250 17.235 17.213 17.207 17.191 17.157 17.133 17.151 17.202 17.231
 17.222 17.190 17.183 17.221 17.285 17.341 17.357 17.338 17.296 17.270
 17.314 17.453 17.603 17.707 17.735 17.689 17.583 17.461 17.323 17.534
 17.744 17.955 18.166 18.376 18.582   .000   .000
   .000   .000   .000   .000 19.107 18.907 18.753 18.734 18.815 18.915
 18.956 18.952 18.926 18.897 18.858 18.829 18.817 18.829 18.859 18.875
 18.848 18.804 18.792 18.829 18.900 18.946 18.954 18.934 18.895 18.865
 18.874 18.972 19.148 19.308 19.381 19.331 19.203 19.065 18.984 19.195
 19.405 19.616 19.827 20.038 20.248   .000   .000
   .000   .000   .000   .000 20.831 20.690 20.507 20.442 20.505 20.616
 20.686 20.711 20.686 20.609 20.545 20.516 20.500 20.490 20.507 20.516
 20.472 20.428 20.422 20.453 20.505 20.532 20.542 20.531 20.510 20.512
 20.552 20.620 20.692 20.811 20.932 20.929 20.815 20.677 20.645 20.856
 21.066 21.277 21.488 21.698 21.909 22.119   .000
   .000   .000   .000   .000   .000 22.437 22.283 22.177 22.212 22.319
 22.390 22.405 22.341 22.240 22.192 22.178 22.167 22.162 22.171 22.163
 22.106 22.083 22.093 22.094 22.076 22.083 22.101 22.109 22.112 22.147
 22.225 22.294 22.315 22.342 22.373 22.339 22.269 22.223 22.306 22.517
 22.728 22.938 23.149 23.360 23.570   .000   .000
   .000   .000   .000   .000   .000 24.088 24.044 23.931 23.935 24.029
 24.092 24.074 23.957 23.876 23.849 23.851 23.856 23.851 23.841 23.802
 23.732 23.721 23.725 23.686 23.645 23.658 23.699 23.728 23.743 23.782
 23.867 23.955 23.960 23.858 23.797 23.791 23.792 23.837 23.967 24.178
 24.389 24.600 24.810 24.868   .000   .000   .000
   .000   .000   .000   .000   .000   .000 25.716 25.685 25.676 25.750
 25.784 25.688 25.563 25.502 25.489 25.506 25.536 25.542 25.511 25.433
 25.350 25.332 25.297 25.234 25.197 25.216 25.279 25.323 25.354 25.397
 25.467 25.502 25.434 25.306 25.255 25.328 25.406 25.506 25.663 25.844
 26.008 26.117 26.173   .000   .000   .000   .000
   .000   .000   .000   .000   .000   .000 27.284 27.372 27.398 27.447
 27.415 27.264 27.152 27.120 27.088 27.056 27.023 27.222 27.175 27.058
 26.957 26.901 26.833 26.785 26.774 26.813 26.897 26.950 26.968 26.971
 26.966 26.920 26.814 26.706 26.667 26.767 26.948 27.122 27.279 27.389
 27.444 27.464   .000   .000   .000   .000   .000
   .000   .000   .000   .000   .000   .000   .000 28.937 29.106 29.171
 29.011 28.849 28.779 28.756 28.733 28.710 28.688 28.906 28.833 28.670
 28.526 28.421 28.354 28.333 28.357 28.425 28.532 28.578 28.505 28.420
 28.371 28.396 28.290 28.183 28.077 27.970 28.376 28.671 28.687 28.702
 28.718   .000   .000   .000   .000   .000   .000
   .000   .000   .000   .000   .000   .000   .000   .000   .000   .000
   .000 31.362 31.237 31.112 30.987 30.861 30.736 30.669 30.619 30.578
 30.543 30.510 30.479 30.444 30.410 30.375 30.340 30.305 30.270 30.235
 30.199 30.163 30.127 30.091 30.055 30.020 29.985   .000   .000   .000
   .000   .000   .000   .000   .000   .000   .000
   .000   .000   .000   .000   .000   .000   .000   .000   .000 32.686
 32.610 32.531 32.444 32.199 32.153 32.108 32.062 32.017 31.971 31.921
 31.874 31.834 31.799 31.768 31.737 31.702 31.664 31.626 31.589 31.553
 31.517 31.479 31.444 31.409 31.374 31.339 31.304 31.269   .000   .000
   .000   .000   .000   .000   .000   .000   .000
   .000   .000   .000   .000   .000   .000   .000   .000   .000 33.732
 33.705 33.678 33.652 33.625 33.598 33.572 33.545 33.461 33.373 33.293
 33.234 33.186 33.141 33.097 33.055 33.014 32.974 32.937 32.902 32.867
 32.833 32.798 32.763 32.728 32.693 32.658 32.624 32.588   .000   .000
   .000   .000   .000   .000   .000   .000   .000

   5.000   HX2 - шаг по оси x равномерной сетки интерполяции, real [км]
   0.500   HZ2 - шаг по оси z равномерной сетки интерполяции, real [км]
  0.8000   MBX = HXP / масштабы графического изображения по осям x и z
  0.2500   MBZ = HZP \ (число км в одном пикселе), real [км]
  10.000  DXF1 - \ размеры окон осредняющего сглаживания,[км]
   1.000  DZF1 - /         1-е окно                       
  20.000  DXF2 - \                                        
   2.000  DZF2 - /         2-е окно                       
   2.000   ZF2 - уровень, разделяющий области различного сглаживания, [км]
       0 IFRAG - задает(=1) или отменяет (=0) расчет граф.образа дискр. разреза
       0 ISYMP - задает(=1) или отменяет (=0) расчет граф.образа лин.инт. разреза
       1 IFLTR - задает(=1) или отменяет (=0) расчет граф.образа сглажен. разреза
       1   KOD - разpешает (=1) или запpещает (=0) пpомежут. печать
       0  KOD1 - pазpешает (=1) или запpещает (=0) ввод VPMAX(G)

    VPMAX(33) - массив ограничений обратного верт. градиента поля времен 10F6.3
